<?xml version="1.0" encoding="utf-8"?>
<!-- Generator: Adobe Illustrator 23.0.1, SVG Export Plug-In . SVG Version: 6.00 Build 0)  -->
<svg version="1.1" xmlns="http://www.w3.org/2000/svg" xmlns:xlink="http://www.w3.org/1999/xlink" x="0px" y="0px"
	 viewBox="0 0 166 163" style="enable-background:new 0 0 166 163;" xml:space="preserve">
<style type="text/css">
	.st0{fill:#FFFFFF;}
</style>
<g id="BACKGROUND">
</g>
<g id="OBJECTS">
	<path class="st0" d="M133.6,13.8H29.2c-9,0-16.3,7.3-16.3,16.3v104.5c0,9,7.3,16.3,16.3,16.3H86V98H68.4V77H86V60.6
		c0-15.3,12.5-27.8,27.8-27.8h15v21.9h-15c-3.2,0-5.9,2.6-5.9,5.9V77h20.9l-3.3,21h-17.6v52.8h25.7c9,0,16.3-7.3,16.3-16.3V30.1
		C149.9,21.1,142.6,13.8,133.6,13.8z"/>
</g>
<g id="DESIGNED_BY_FREEPIK">
</g>
</svg>
