<?xml version="1.0" encoding="utf-8"?>
<!-- Generator: Adobe Illustrator 23.0.1, SVG Export Plug-In . SVG Version: 6.00 Build 0)  -->
<svg version="1.1" id="Layer_1" xmlns="http://www.w3.org/2000/svg" xmlns:xlink="http://www.w3.org/1999/xlink" x="0px" y="0px"
	 viewBox="0 0 131.9 115" style="enable-background:new 0 0 131.9 115;" xml:space="preserve">
<style type="text/css">
	.st0{fill:#1D408F;}
</style>
<g>
	<path class="st0" d="M34.8,79.8c-4.1,0-7.4-3.3-7.4-7.4c0-0.5,0-0.9,0.1-1.4l5.6-29.7c0,0,0-0.2,0-0.2c0.8-3.4,3.8-5.9,7.3-5.9
		h56.7c2,0,3.8,0.8,5.2,2.2c1.4,1.4,2.2,3.3,2.2,5.2c0,0.5,0,0.9-0.1,1.4l-5.6,29.7c-0.7,3.5-3.7,6.1-7.3,6.1L34.8,79.8L34.8,79.8z
		 M32.3,71.9c0,0.1,0,0.3,0,0.5c0,1.4,1.1,2.5,2.5,2.5h56.7c1.2,0,2.2-0.8,2.4-2l4.8-25.3L66.8,59.8c-0.3,0.1-0.6,0.2-0.9,0.2
		c-0.4,0-0.8-0.1-1.1-0.3L37.3,45.5L32.3,71.9z M66.1,54.8l33.4-12.9c-0.1-0.4-0.3-0.7-0.6-1c-0.5-0.5-1.1-0.7-1.7-0.7H40.3l0,0
		c-0.6,0-1.1,0.2-1.5,0.5L66.1,54.8z"/>
</g>
</svg>
